{
  "name": "default",
  "include": [
    "~/.config/waybar/default-modules.json",
  ],
  "layer": "top", // Waybar at top layer
  "position": "top", // Waybar position (top|bottom|left|right)
  // "height": 15, // Waybar height (to be removed for auto height)
  // "width": 15, // Waybar width
  "spacing": 2, // Gaps between modules (4px)
  // Choose the order of the modules
  "modules-left": [
    "custom/os_button",
    "hyprland/workspaces",
    "cpu",
    "memory",
    "temperature"
  ],
  "modules-center": [
    "hyprland/window"
  ],
  "modules-right": [
    "hyprland/submap",
    "battery",
    "power-profiles-daemon",
    "network",
    "bluetooth",
    "idle_inhibitor",
    "custom/dunst",
    "privacy",
    "custom/webcam",
    "tray",
    "clock"
  ],
  
  "clock": {
      "format": "{:%I:%M %p}",
      "tooltip-format": "<big>{:%Y %B %d}</big>\n<tt><small>{calendar}</small></tt>"
  },
}
